<?xml version="1.0" encoding="UTF-8"?>
<svg width="89.676mm" height="99.053mm" version="1.1" viewBox="0 0 89.676 99.053" xmlns="http://www.w3.org/2000/svg">
 <g transform="translate(-56.712 -52.58)" fill="none" stroke-linecap="round">
  <path d="m113.99 66.007 7.3051 7.012" stroke="#5c6772" stroke-width="3.5161"/>
  <path d="m100.52 78.833 20.645 20.268" stroke="#1e6a97" stroke-width="3.5161"/>
  <path d="m100.52 78.833 20.788-21.521" stroke="#343a40" stroke-width="3.5161"/>
  <path d="m100.52 78.833-22.734 23.011" stroke="#1a5b82" stroke-width="3.5161"/>
  <path d="m113.99 139.15 7.3051-7.012" stroke="#000" stroke-width="3.5161"/>
  <path d="m100.52 126.32 20.645-20.268" stroke="#17b2b6" stroke-width="3.5161"/>
  <path d="m100.52 126.32 20.788 21.521" stroke="#000" stroke-width="3.5161"/>
  <path d="m100.52 126.32-22.734-24.48" stroke="#0c595b" stroke-width="3.5161"/>
 </g>
</svg>
